5 1 2012 1111 150.00 Deposit
5 1 2012 2525 100.00 Deposit
5 1 2012 2020 200.00 Deposit
6 1 2012 1111 220.00 Withdrawal
6 1 2012 2525 200.00 Withdrawal
7 1 2012 1111 50.00  Transfer
2525
6 1 2012 2020 30.00  Withdrawal
7 1 2012 2525 100.00 Transfer
2020
7 1 2012 3434 250.00 Transfer
1111
9 1  2012 1111 110.00 Deposit
10 1 2012 1111 320.00 Withdrawal